NHG Confidence Intervals for M: Minimal Cardinality Procedures
…
Plot of All Minimal Cardinality Curves

all_ac_mc_N_50_m_3 = all_mc_ac(N = 50, m = 3, conf_level = 0.95)
all_ac_mc_N_50_m_3

# A tibble: 64 × 6
       M     a     b cardinality coverage_prob x_set
   <int> <dbl> <dbl>       <dbl>         <dbl> <chr>
 1    50     0     0           1         1     0-0  
 2    49     0     1           2         1     0-1  
 3    48     0     1           2         0.995 0-1  
 4    47     0     1           2         0.986 0-1  
 5    46     0     1           2         0.972 0-1  
 6    45     0     1           2         0.955 0-1  
 7    44     0     2           3         0.991 0-2  
 8    43     0     2           3         0.984 0-2  
 9    42     0     2           3         0.976 0-2  
10    41     0     2           3         0.965 0-2  
# ℹ 54 more rows
…
