Conditional Minimal Cardinality (CMC)
…
  # Adds a column of the x set
  filtered_results = filtered_results %>%
    mutate(x_set = paste(a, b, sep = "-"))

  return(filtered_results)
    
}

test = cmc_ac(N = 20, m = 3, conf_level = 0.95)
test

# A tibble: 21 × 6
       M     a     b cardinality coverage_prob x_set
   <int> <dbl> <dbl>       <dbl>         <dbl> <chr>
 1    20     0     0           1         1     0-0  
 2    19     0     1           2         1     0-1  
 3    18     0     1           2         0.968 0-1  
 4    17     0     2           3         0.991 0-2  
 5    16     0     2           3         0.968 0-2  
 6    15     0     3           4         0.986 0-3  
 7    14     0     3           4         0.963 0-3  
 8    13     0     4           5         0.978 0-4  
 9    12     0     5           6         0.985 0-5  
10    11     0     5           6         0.960 0-5  
# ℹ 11 more rows
…
