Conditional Minimal Cardinality (CMC) (N Unknown)
…
  # Arranges data by N
  filtered_results = results %>%
    arrange(N)

  # Adds a column of the x set
  filtered_results = filtered_results %>%
    mutate(x_set = paste(a, b, sep = "-"))

  return(filtered_results)
    
}

cmc_ac_N_unknown(M = 10, m = 5, conf_level = 0.95, max_N = 40)

# A tibble: 31 × 6
       N     a     b cardinality coverage_prob x_set
   <int> <int> <int>       <dbl>         <dbl> <chr>
 1    10     0     0           1         1     0-0  
 2    11     0     1           2         1     0-1  
 3    12     0     2           3         1     0-2  
 4    13     0     3           4         1     0-3  
 5    14     0     4           5         1     0-4  
 6    15     0     4           5         0.958 0-4  
 7    16     0     5           6         0.974 0-5  
 8    17     1     7           7         0.959 1-7  
 9    18     1     7           7         0.959 1-7  
10    19     1     8           8         0.971 1-8  
# ℹ 21 more rows
…
